plate	patient	biosource	biopsy_date	biopsy_type	facs_sort	sort_date	sequence_data	mycn_status
KK055	PMCID328AAN	PMCBS000GGU	20200124	Diagnosis	DRAQ5+/DAPI-	20200125	20200218	amp
KK056	PMCID328AAN	PMCBS000GGU	20200124	Diagnosis	DRAQ5+/DAPI-	20200125	20200218	amp
KK057	PMCID328AAN	PMCBS000GGU	20200124	Diagnosis	DRAQ5+/DAPI-	20200125	20200218	amp
KK058	PMCID328AAN	PMCBS000GGU	20200124	Diagnosis	DRAQ5+/DAPI-	20200125	20200218	amp
KK059	PMCID328AAN	PMCBS000GGU	20200124	Diagnosis	DRAQ5+/DAPI-/GD2+	20200125	20200218	amp
TM497	NA	NA	NA	BM	nearIR	NA	NA	NA
TM496	NA	NA	NA	BM	nearIR	NA	NA	NA
